G04 DipTrace 3.2.0.1*
G04 Top.gbr*
%MOIN*%
G04 #@! TF.FileFunction,Copper,L1,Top*
G04 #@! TF.Part,Single*
%AMOUTLINE0*
4,1,20,
-0.022461,0.044902,
-0.021113,0.052585,
-0.017218,0.059344,
-0.011247,0.064364,
-0.00392,0.067037,
0.003881,0.067045,
0.011214,0.064382,
0.017193,0.059374,
0.0211,0.052622,
0.022461,0.044941,
0.022461,0.00002,
0.021113,-0.007664,
0.017218,-0.014423,
0.011247,-0.019442,
0.00392,-0.022115,
-0.003881,-0.022123,
-0.011214,-0.019461,
-0.017193,-0.014453,
-0.0211,-0.007701,
-0.022461,-0.00002,
-0.022461,0.044902,
0*%
%AMOUTLINE1*
4,1,20,
0.022461,-0.044902,
0.021113,-0.052585,
0.017218,-0.059344,
0.011247,-0.064364,
0.00392,-0.067037,
-0.003881,-0.067045,
-0.011214,-0.064382,
-0.017193,-0.059374,
-0.0211,-0.052622,
-0.022461,-0.044941,
-0.022461,-0.00002,
-0.021113,0.007664,
-0.017218,0.014423,
-0.011247,0.019442,
-0.00392,0.022115,
0.003881,0.022123,
0.011214,0.019461,
0.017193,0.014453,
0.0211,0.007701,
0.022461,0.00002,
0.022461,-0.044902,
0*%
%ADD31C,0.043307*%
%ADD32C,0.027559*%
G04 #@! TA.AperFunction,Conductor*
%ADD13C,0.012992*%
%ADD14R,0.059055X0.051181*%
G04 #@! TA.AperFunction,ComponentPad*
%ADD15R,0.066929X0.066929*%
%ADD16C,0.066929*%
%ADD18R,0.047244X0.047244*%
%ADD19R,0.059055X0.062992*%
%ADD21R,0.062992X0.059055*%
%ADD22R,0.051181X0.059055*%
%ADD23R,0.023622X0.07874*%
%ADD25R,0.037402X0.084646*%
%ADD26R,0.127953X0.084646*%
%ADD30R,0.059055X0.059055*%
G04 #@! TA.AperFunction,ComponentPad*
%ADD59OUTLINE0*%
%ADD60OUTLINE1*%
%FSLAX26Y26*%
G04*
G70*
G90*
G75*
G01*
G04 Top*
%LPD*%
X991448Y954009D2*
D13*
X1000000Y800000D1*
Y799803D1*
X1306408Y1505190D2*
Y1606408D1*
X1362598Y1662598D1*
X1950000Y1075197D2*
X2096063D1*
X2121260Y1050000D1*
X2650000Y1600000D2*
X2738583Y1511417D1*
X2788583D1*
X2800000Y1500000D1*
X2200000Y1678740D2*
X2321260D1*
X2350000Y1650000D1*
Y1598399D1*
X2364999Y1583400D1*
X912707Y1505190D2*
Y1737293D1*
X900000Y1750000D1*
X833967Y1505190D2*
Y1716033D1*
X800000Y1750000D1*
X991448Y1505190D2*
Y1648140D1*
X1050000Y1706693D1*
Y1750000D1*
X1070188Y1505190D2*
Y1622944D1*
X1150000Y1702756D1*
Y1750000D1*
X2400000Y1050000D2*
Y1021259D1*
X2318505Y939764D1*
X2178346D1*
X2160630Y922047D1*
X1818701Y1781299D2*
X1837402Y1800000D1*
X1900000D1*
X2000000D2*
X1900000D1*
X2125197Y1850000D2*
X2050000D1*
X2000000Y1800000D1*
X1768701Y1781299D2*
Y1714764D1*
X1816142Y1667323D1*
X2044094D1*
X2072047Y1639370D1*
X1227668Y1505190D2*
Y1676487D1*
X1312598Y1761417D1*
Y1837402D1*
X2450000Y1050000D2*
Y981496D1*
X2456299Y975197D1*
X2650000D1*
X2600000Y800000D1*
X850000Y625197D2*
X675000D1*
X833967Y954009D2*
Y789085D1*
X750000Y705118D1*
Y625197D1*
X850000D1*
X2350000Y1050000D2*
X2316143D1*
X2241143Y975000D1*
X2124999D1*
X2075000Y925001D1*
Y850000D1*
X2350000D1*
Y750000D2*
Y850000D1*
X2525197Y800000D2*
X2475197Y850000D1*
X2350000D1*
X2500000Y1800000D2*
X2566929D1*
X2751575Y1615354D1*
X2784646D1*
X2800000Y1600000D1*
X2350000Y1850000D2*
X2400000Y1800000D1*
X2500000D1*
X2275197Y1850000D2*
X2200000D1*
X1718701Y1781299D2*
Y1810041D1*
X1835825Y1927165D1*
X2153937D1*
X2179921Y1901181D1*
Y1870079D1*
X2200000Y1850000D1*
X2850000Y1250000D2*
X2950000D1*
X2650000Y1150000D2*
Y1050000D1*
X2900000D1*
X3025000Y1175000D1*
Y1266734D1*
X2950000Y1341734D1*
Y1350000D1*
X1148928Y954009D2*
Y751072D1*
X1200000Y700000D1*
X1227668Y954009D2*
Y800678D1*
X1270472Y757874D1*
Y729528D1*
X1300000Y700000D1*
X1306408Y954009D2*
Y793592D1*
X1400000Y700000D1*
X1070188Y954009D2*
Y1017717D1*
X1044203Y1043701D1*
X802756D1*
X675000Y915945D1*
Y700000D1*
X2050000Y1450000D2*
X2200000D1*
X1148928Y1505190D2*
Y1441339D1*
X1174912Y1415354D1*
X1682283D1*
X1765870Y1498941D1*
X1973744D1*
X1994094Y1519291D1*
X2020079D1*
X2050000Y1489370D1*
Y1450000D1*
X1975197D2*
X1858661D1*
X1850000Y1441339D1*
Y1425591D1*
Y1400000D1*
X1640551Y1278346D2*
X1686220Y1324016D1*
Y1355512D1*
X1790157Y1459449D1*
X1816142D1*
X1850000Y1425591D1*
X1385148Y954009D2*
X1525000D1*
X1622513D1*
X1660236Y991732D1*
Y1030315D1*
X1640551Y1050000D1*
X1000000Y725000D2*
Y717322D1*
X1117322Y600000D1*
X1425000D1*
X1475000Y650000D1*
Y813189D1*
X1385148Y903041D1*
Y954009D1*
X850000Y700000D2*
X900787D1*
X925787Y725000D1*
X1000000D1*
X1525000Y950000D2*
Y954009D1*
X2300000Y1450000D2*
Y1375984D1*
X2274016Y1350000D1*
X2100000D1*
X1850000Y1325197D2*
X2024016D1*
X2075197D1*
X2100000Y1350000D1*
X1731102Y1278346D2*
X1777953Y1325197D1*
X1850000D1*
X2950000Y1450000D2*
Y1550000D1*
X1437402Y1662598D2*
Y1600394D1*
X1385148Y1548140D1*
Y1505190D1*
X2800000Y1700000D2*
X2907480Y1592520D1*
X2950000Y1550000D1*
X2800000Y1800000D2*
Y1700000D1*
X1668701Y1781299D2*
Y1857677D1*
X1712205Y1901181D1*
X1764173Y1953150D1*
X2829528D1*
X2907480Y1875197D1*
Y1592520D1*
X2200000Y1050000D2*
Y1101575D1*
X2127953Y1173622D1*
X2101969D1*
X2024016Y1251575D1*
Y1325197D1*
X700000Y1750000D2*
Y1760825D1*
X889175Y1950000D1*
X1663386D1*
X1712205Y1901181D1*
X2200000Y1600000D2*
X2300000Y1500000D1*
Y1450000D1*
X2500000Y1050000D2*
Y1087402D1*
X2465748Y1121654D1*
X2231890D1*
X2205906Y1095669D1*
X2200000Y1101575D1*
X2950000Y1450000D2*
X3011417D1*
X3050000Y1411417D1*
Y1134252D1*
X2595669Y679921D1*
X2170079D1*
X2025000Y825000D1*
Y1000000D1*
X2188189D1*
X2200000Y1011811D1*
Y1050000D1*
X2700000Y1400000D2*
X2822047D1*
X2872047Y1450000D1*
X2950000D1*
X1437402Y1662598D2*
X1565748D1*
X1668701Y1765551D1*
Y1781299D1*
X2350000Y1262598D2*
X2200000D1*
X2112598D1*
X2100000Y1275197D1*
X2600000Y1400000D2*
X2420472D1*
X2350000Y1329528D1*
Y1262598D1*
X2439802Y1583400D2*
Y1380671D1*
X2420472Y1400000D1*
X2575197Y1600000D2*
X2500000D1*
X2456402D1*
X2439802Y1583400D1*
X2500000Y1725197D2*
Y1600000D1*
X2775197Y1250000D2*
X2724803D1*
X2679134D1*
X2600000Y1329134D1*
Y1400000D1*
X2724803Y1150000D2*
Y1250000D1*
X1818701Y1568701D2*
X2095472D1*
X2150000Y1623228D1*
Y1701181D1*
X2174016Y1725197D1*
X2500000D1*
X1550000Y1278346D2*
Y1175000D1*
X1925000D1*
X1950000Y1150000D1*
X1925000Y1200000D2*
Y1175000D1*
X2200000Y1250000D2*
Y1262598D1*
X1400000Y1825000D2*
X1500000D1*
D14*
X2100000Y1350000D3*
Y1275197D3*
X1850000Y1325197D3*
Y1400000D3*
D15*
X2950000Y1250000D3*
D16*
Y1350000D3*
Y1450000D3*
Y1550000D3*
D15*
X2800000Y1500000D3*
D16*
Y1600000D3*
Y1700000D3*
Y1800000D3*
D15*
X2600000Y1400000D3*
D16*
X2700000D3*
D15*
X900000Y1750000D3*
D16*
X800000D3*
X700000D3*
D15*
X2200000Y1450000D3*
D16*
X2300000D3*
D15*
X1200000Y700000D3*
D16*
X1300000D3*
X1400000D3*
D15*
X1150000Y1750000D3*
D16*
X1050000D3*
D15*
X2350000Y850000D3*
D16*
Y750000D3*
D15*
X1900000Y1800000D3*
D16*
X2000000D3*
D18*
X2200000Y1600000D3*
D19*
X2072047Y1639370D3*
D18*
X2200000Y1678740D3*
Y1050000D3*
D21*
X2160630Y922047D3*
D18*
X2121260Y1050000D3*
D22*
X2600000Y800000D3*
X2525197D3*
X2200000Y1850000D3*
X2125197D3*
D14*
X2650000Y1050000D3*
Y975197D3*
D22*
X2350000Y1850000D3*
X2275197D3*
X2650000Y1150000D3*
X2724803D3*
D14*
X2500000Y1800000D3*
Y1725197D3*
D22*
X2439802Y1583400D3*
X2364999D3*
D14*
X1950000Y1150000D3*
Y1075197D3*
D22*
X2850000Y1250000D3*
X2775197D3*
X2650000Y1600000D3*
X2575197D3*
D14*
X1000000Y725000D3*
Y799803D3*
D22*
X1362598Y1662598D3*
X1437402D3*
X2050000Y1450000D3*
X1975197D3*
X1312598Y1837402D3*
X1387402D3*
D14*
X675000Y700000D3*
Y625197D3*
X850000Y700000D3*
Y625197D3*
D23*
X2350000Y1050000D3*
X2400000D3*
X2450000D3*
X2500000D3*
Y1262598D3*
X2450000D3*
X2400000D3*
X2350000D3*
D25*
X1731102Y1278346D3*
X1640551D3*
X1550000D3*
D26*
X1640551Y1050000D3*
D59*
X1385148Y1505190D3*
X1306408D3*
X1227668D3*
X1148928D3*
X1070188D3*
X991448D3*
X912707D3*
X833967D3*
D60*
X1385148Y954009D3*
X1306408D3*
X1227668D3*
X1148928D3*
X1070188D3*
X991448D3*
X912707D3*
X833967D3*
D23*
X1818701Y1781299D3*
X1768701D3*
X1718701D3*
X1668701D3*
Y1568701D3*
X1718701D3*
X1768701D3*
X1818701D3*
D30*
X1500000Y1825000D3*
X1525000Y950000D3*
X1925000Y1200000D3*
X2200000Y1250000D3*
G04 Top Clear*
%LPC*%
D31*
X2950000D3*
Y1350000D3*
Y1450000D3*
Y1550000D3*
X2800000Y1500000D3*
Y1600000D3*
Y1700000D3*
Y1800000D3*
X2600000Y1400000D3*
X2700000D3*
X900000Y1750000D3*
X800000D3*
X700000D3*
X2200000Y1450000D3*
X2300000D3*
X1200000Y700000D3*
X1300000D3*
X1400000D3*
X1150000Y1750000D3*
X1050000D3*
X2350000Y850000D3*
Y750000D3*
X1900000Y1800000D3*
X2000000D3*
D32*
X1385148Y1505190D3*
X1306408D3*
X1227668D3*
X1148928D3*
X1070188D3*
X991448D3*
X912707D3*
X833967D3*
X1385148Y954009D3*
X1306408D3*
X1227668D3*
X1148928D3*
X1070188D3*
X991448D3*
X912707D3*
X833967D3*
M02*
